2019-05-15 12:08:30 : ken@blaze.team opted into wheel 1073
2019-05-15 12:08:30 : ken@blaze.team turned wheel 1073, and landed on segment 5. They won.They hit "10% Discount", with value "10OFF"
2019-05-16 11:36:59 : yuvarajan@blaze.ws opted into wheel 1073
2019-05-16 11:36:59 : yuvarajan@blaze.ws turned wheel 1073, and landed on segment 6. They won.They hit "Free Ebook", with value "https://google.com/"
2019-05-20 10:57:37 : uio@rty.yut opted into wheel 1073
2019-05-20 10:57:37 : uio@rty.yut turned wheel 1073, and landed on segment 10. They won.They hit "50% Discount", with value "50OFF"
2019-05-28 13:10:05 : dconn967@gmail.com opted into wheel 1073
2019-05-28 13:10:05 : dconn967@gmail.com turned wheel 1073, and landed on segment 5. They won.They hit "10% Discount", with value "10OFF"
2019-05-28 17:11:26 : spirvoid@aol.com opted into wheel 1073
2019-05-28 17:11:26 : spirvoid@aol.com turned wheel 1073, and landed on segment 6. They won.They hit "Free Ebook", with value "https://google.com/"
2019-05-28 18:50:06 : donandjeannie2577@yahoo.com opted into wheel 1073
2019-05-28 18:50:06 : donandjeannie2577@yahoo.com turned wheel 1073, and landed on segment 1. They won.They hit "5% Discount", with value "5OFF"
